<?xml version="1.0" encoding="utf-8"?>
<!-- Generator: Adobe Illustrator 23.0.6, SVG Export Plug-In . SVG Version: 6.00 Build 0)  -->
<svg version="1.1" id="Camada_1" xmlns="http://www.w3.org/2000/svg" xmlns:xlink="http://www.w3.org/1999/xlink" x="0px" y="0px"
	 viewBox="0 0 596.3 579.2" style="enable-background:new 0 0 596.3 579.2;" xml:space="preserve">
<style type="text/css">
	.st0{fill:#D17732;}
	.st1{fill:none;stroke:#2A170F;stroke-miterlimit:10;}
</style>
<g>
	<g>
		<g>
			<path class="st0" d="M-163.2,231.8c9.9-9.6,13.3-23.7,9-36.8c-4.3-13.1-15.3-22.4-29-24.5l-119.1-17.3c-2.3-0.3-4.4-1.8-5.4-3.9
				l-53.2-108c-6.1-12.3-18.5-20-32.2-20s-26.1,7.7-32.2,20l-53.3,108c-1.1,2.1-3.1,3.6-5.4,3.9l-119.1,17.3
				c-13.6,2-24.8,11.4-29,24.5c-4.3,13.1-0.7,27.2,9,36.8l86.3,84c1.7,1.7,2.4,4,2,6.4L-555.3,441c-2.3,13.6,3.2,27,14.3,35.1
				c11.2,8.1,25.6,9.1,37.9,2.8l106.6-56.1c2.1-1.1,4.6-1.1,6.7,0l106.6,56.1c5.3,2.8,11.1,4.1,16.7,4.1c7.4,0,14.8-2.3,21.1-6.9
				c11.2-8.1,16.6-21.6,14.3-35.1l-20.3-118.7c-0.4-2.3,0.4-4.7,2-6.4L-163.2,231.8z M-279.8,327.1l20.3,118.7
				c0.6,3.9-1.8,6.3-2.9,7c-1.1,0.7-4,2.4-7.6,0.5l-106.6-56.1c-5.2-2.8-11-4.1-16.7-4.1s-11.5,1.4-16.7,4.1l-106.6,56.1
				c-3.6,1.9-6.5,0.2-7.6-0.5c-1.1-0.7-3.5-3.1-2.9-7l20.3-118.7c2-11.7-1.9-23.5-10.3-31.8l-86.3-84c-2.9-2.8-2.2-6.1-1.8-7.3
				c0.4-1.3,1.8-4.4,5.9-4.9l119.1-17.3c11.7-1.7,21.8-9,27-19.7l53.3-108c1.8-3.6,5.1-4,6.5-4c1.4,0,4.7,0.4,6.5,4l0,0l53.3,108
				c5.2,10.6,15.3,18,27,19.7l119.1,17.3c3.9,0.5,5.4,3.6,5.9,4.9c0.4,1.3,1.1,4.6-1.8,7.3l-86.3,84
				C-278,303.5-281.8,315.4-279.8,327.1z"/>
		</g>
	</g>
	<g>
		<g>
			<path class="st0" d="M-225.3,41.3c-6.4-4.7-15.4-3.2-20.1,3.2l-15.2,21c-4.7,6.4-3.2,15.4,3.2,20.1c2.6,1.8,5.5,2.8,8.4,2.8
				c4.5,0,8.8-2,11.6-6l15.2-21C-217.5,55-218.9,46-225.3,41.3z"/>
		</g>
	</g>
	<g>
		<g>
			<path class="st0" d="M-525.8,65.4l-15.3-21.1c-4.7-6.4-13.6-7.9-20.1-3.2c-6.4,4.7-7.9,13.6-3.2,20.1l15.2,21
				c2.8,3.8,7.2,6,11.6,6c3,0,5.9-0.9,8.4-2.8C-522.6,80.8-521.2,71.8-525.8,65.4z"/>
		</g>
	</g>
	<g>
		<g>
			<path class="st0" d="M-612.8,343.6c-2.4-7.6-10.5-11.7-18.1-9.3l-24.7,8c-7.6,2.4-11.7,10.5-9.3,18.1c2,6.1,7.6,9.9,13.6,9.9
				c1.5,0,3-0.2,4.5-0.7l24.7-8C-614.5,359.3-610.3,351.2-612.8,343.6z"/>
		</g>
	</g>
	<g>
		<g>
			<path class="st0" d="M-393.2,503.2c-8,0-14.4,6.4-14.4,14.4v26c0,8,6.4,14.4,14.4,14.4s14.4-6.4,14.4-14.4v-26
				C-378.8,509.6-385.2,503.2-393.2,503.2z"/>
		</g>
	</g>
	<g>
		<g>
			<path class="st0" d="M-130.8,342.5l-24.7-8c-7.6-2.4-15.6,1.7-18.1,9.3c-2.4,7.6,1.7,15.6,9.3,18.1l24.7,8c1.5,0.5,3,0.7,4.5,0.7
				c6.1,0,11.7-3.8,13.6-9.9C-119.2,353-123.2,344.9-130.8,342.5z"/>
		</g>
	</g>
</g>
<g id="surface1">
	<path class="st0" d="M520.1,170.1v-0.4c-0.2-5-0.4-10.3-0.5-16.2c-0.4-28.8-23.4-52.7-52.2-54.3c-60-3.3-106.5-22.9-146.2-61.6
		l-0.3-0.3c-13-11.8-32.5-11.8-45.4,0l-0.4,0.3c-39.7,38.8-86.1,58.4-146.2,61.7c-28.8,1.5-51.7,25.4-52.2,54.2
		c-0.1,5.9-0.2,11.2-0.5,16.2v0.9c-1.1,61.2-2.7,137.5,22.9,206.7c14,38.1,35.3,71.1,63.2,98.3c31.7,30.9,73.3,55.5,123.5,73.1
		c1.6,0.6,3.4,1,5.1,1.4c2.4,0.5,4.9,0.7,7.3,0.7c2.4,0,4.9-0.2,7.3-0.7c1.7-0.3,3.5-0.8,5.1-1.4c50.2-17.6,91.7-42.1,123.4-73.1
		c27.9-27.2,49.1-60.3,63.2-98.4C522.7,307.9,521.2,231.6,520.1,170.1z M468.4,366.7c-26.9,73-81.8,123.1-167.9,153.1
		c-0.3,0.1-0.6,0.2-1,0.3c-0.9,0.2-1.8,0.2-2.7,0c-0.3-0.1-0.6-0.2-0.9-0.3c-86.1-30-141.1-80.1-168-153.1
		c-23.5-63.8-22.1-133.8-21-195.5v-0.3c0.2-5.3,0.4-10.8,0.5-16.9c0.2-12.8,10.4-23.4,23.2-24.1c34-1.9,63.9-8.5,91.3-20.1
		s51.7-28,74.4-50c1.1-1,2.7-1,3.8,0c22.7,22,47,38.4,74.4,50c27.5,11.6,57.4,18.2,91.3,20.1c12.9,0.7,23,11.3,23.2,24.1
		c0.1,6.1,0.2,11.7,0.5,16.9C490.6,232.8,491.9,302.8,468.4,366.7z"/>
	<path class="st0" d="M298.1,159.4c-71.8,0-130.2,58.4-130.2,130.2s58.4,130.2,130.2,130.2s130.2-58.4,130.2-130.2
		C428.4,217.9,370,159.4,298.1,159.4z M298.1,389.2c-54.9,0-99.6-44.7-99.6-99.6s44.7-99.6,99.6-99.6s99.6,44.7,99.6,99.6
		S353,389.2,298.1,389.2z"/>
	<path class="st0" d="M335.6,249.2l-60.5,60.5l-16.4-16.4c-6-6-15.7-6-21.6,0c-6,6-6,15.7,0,21.6l27.2,27.2c3,3,6.9,4.5,10.8,4.5
		s7.9-1.5,10.8-4.5l71.3-71.3c6-6,6-15.7,0-21.6C351.2,243.2,341.5,243.2,335.6,249.2z"/>
</g>
<rect x="-690.8" class="st1" width="595.3" height="578.7"/>
</svg>
