{
  "pages": {
    "/": "index",
    "/conheca-a-colmeia": "index",
    "/robots": "robots.txt",
    "/calculadora-pas": "new-calculadora",
    "/perguntas-frequentes": "faq",
    "/quem-somos": "quem-somos",
    "/aula-particular-sp": "landing-sp",
    "/acompanhamento-escolar": "new-acompanhamento",
    "/empresas/rappi": "empresas-rappi"
  },
  "campaigns": {
    "/aula-particular/ingles": "landing-ingles",
    "/aula-particular/certificacao-ingles": "landing-cert",
    "/aula-particular/recuperacao": "landing-recu",
    "/reforco-escolar/fantasma": "landing-fantasma"
  },
  "campaignsWithId": ["brasilia", "sao-paulo", "matematica", "portugues"]
}
